…
Below is a table summarizing the number of items ordered from aisle. In
total, there are 134 aisles, with fresh vegetables and fresh fruits
holding the most items ordered by far.

``` r
instacart %>% 
  count(aisle) %>% 
  arrange(desc(n))
```

    ## # A tibble: 134 × 2
    ##    aisle                              n
    ##    <chr>                          <int>
    ##  1 fresh vegetables              150609
    ##  2 fresh fruits                  150473
    ##  3 packaged vegetables fruits     78493
    ##  4 yogurt                         55240
    ##  5 packaged cheese                41699
    ##  6 water seltzer sparkling water  36617
    ##  7 milk                           32644
    ##  8 chips pretzels                 31269
    ##  9 soy lactosefree                26240
    ## 10 bread                          23635
    ## # … with 124 more rows
…
``` r
weekdays = c('Monday', 'Tuesday', 'Wednesday', 'Thursday', 'Friday') 
accel %>% 
  mutate(wDays = factor(accel$day %in% weekdays, levels=c(FALSE, TRUE), labels=c("weekend", "weekday"))) %>% 
  select(week, day_id, day, wDays, everything())
```

    ## # A tibble: 50,400 × 6
    ##     week day_id day    wDays   activity_num activity_counts
    ##    <dbl>  <dbl> <chr>  <fct>   <chr>                  <dbl>
    ##  1     1      1 Friday weekday 1                       88.4
    ##  2     1      1 Friday weekday 2                       82.2
    ##  3     1      1 Friday weekday 3                       64.4
    ##  4     1      1 Friday weekday 4                       70.0
    ##  5     1      1 Friday weekday 5                       75.0
    ##  6     1      1 Friday weekday 6                       66.3
    ##  7     1      1 Friday weekday 7                       53.8
    ##  8     1      1 Friday weekday 8                       47.8
    ##  9     1      1 Friday weekday 9                       55.5
    ## 10     1      1 Friday weekday 10                      43.0
    ## # … with 50,390 more rows
…
## Problem 3

``` r
library(p8105.datasets)
data("ny_noaa")
ny_noaa = 
  ny_noaa %>% 
  as_tibble(ny_noaa)
```

``` r
ny_noaa
```

    ## # A tibble: 2,595,176 × 7
    ##    id          date        prcp  snow  snwd tmax  tmin 
    ##    <chr>       <date>     <int> <int> <int> <chr> <chr>
    ##  1 US1NYAB0001 2007-11-01    NA    NA    NA <NA>  <NA> 
    ##  2 US1NYAB0001 2007-11-02    NA    NA    NA <NA>  <NA> 
    ##  3 US1NYAB0001 2007-11-03    NA    NA    NA <NA>  <NA> 
    ##  4 US1NYAB0001 2007-11-04    NA    NA    NA <NA>  <NA> 
    ##  5 US1NYAB0001 2007-11-05    NA    NA    NA <NA>  <NA> 
    ##  6 US1NYAB0001 2007-11-06    NA    NA    NA <NA>  <NA> 
    ##  7 US1NYAB0001 2007-11-07    NA    NA    NA <NA>  <NA> 
    ##  8 US1NYAB0001 2007-11-08    NA    NA    NA <NA>  <NA> 
    ##  9 US1NYAB0001 2007-11-09    NA    NA    NA <NA>  <NA> 
    ## 10 US1NYAB0001 2007-11-10    NA    NA    NA <NA>  <NA> 
    ## # … with 2,595,166 more rows
…
